%YAML 1.1
%TAG !u! tag:unity3d.com,2011:
--- !u!1001 &100100000
Prefab:
  m_ObjectHideFlags: 1
  serializedVersion: 2
  m_Modification:
    m_TransformParent: {fileID: 0}
    m_Modifications: []
    m_RemovedComponents: []
  m_ParentPrefab: {fileID: 0}
  m_RootGameObject: {fileID: 1724332164914292}
  m_IsPrefabParent: 1
--- !u!1 &1724332164914292
GameObject:
  m_ObjectHideFlags: 0
  m_PrefabParentObject: {fileID: 0}
  m_PrefabInternal: {fileID: 100100000}
  serializedVersion: 5
  m_Component:
  - component: {fileID: 4239311562775076}
  - component: {fileID: 212798444019314808}
  - component: {fileID: 60095402108746204}
  - component: {fileID: 50439405845629704}
  - component: {fileID: 114553747170304828}
  m_Layer: 0
  m_Name: ball2
  m_TagString: Ball
  m_Icon: {fileID: 0}
  m_NavMeshLayer: 0
  m_StaticEditorFlags: 0
  m_IsActive: 1
--- !u!4 &4239311562775076
Transform:
  m_ObjectHideFlags: 1
  m_PrefabParentObject: {fileID: 0}
  m_PrefabInternal: {fileID: 100100000}
  m_GameObject: {fileID: 1724332164914292}
  m_LocalRotation: {x: 0, y: 0, z: 0, w: 1}
  m_LocalPosition: {x: -1.5040523, y: 12.658073, z: 0}
  m_LocalScale: {x: 0.7, y: 0.7, z: 0.7}
  m_Children: []
  m_Father: {fileID: 0}
  m_RootOrder: 0
  m_LocalEulerAnglesHint: {x: 0, y: 0, z: 0}
--- !u!50 &50439405845629704
Rigidbody2D:
  serializedVersion: 4
  m_ObjectHideFlags: 1
  m_PrefabParentObject: {fileID: 0}
  m_PrefabInternal: {fileID: 100100000}
  m_GameObject: {fileID: 1724332164914292}
  m_BodyType: 0
  m_Simulated: 1
  m_UseFullKinematicContacts: 0
  m_UseAutoMass: 0
  m_Mass: 1
  m_LinearDrag: 0
  m_AngularDrag: 0.05
  m_GravityScale: 1
  m_Material: {fileID: 0}
  m_Interpolate: 0
  m_SleepingMode: 1
  m_CollisionDetection: 0
  m_Constraints: 0
--- !u!60 &60095402108746204
PolygonCollider2D:
  m_ObjectHideFlags: 1
  m_PrefabParentObject: {fileID: 0}
  m_PrefabInternal: {fileID: 100100000}
  m_GameObject: {fileID: 1724332164914292}
  m_Enabled: 1
  m_Density: 1
  m_Material: {fileID: 0}
  m_IsTrigger: 0
  m_UsedByEffector: 0
  m_UsedByComposite: 0
  m_Offset: {x: 0, y: 0}
  m_SpriteTilingProperty:
    border: {x: 0, y: 0, z: 0, w: 0}
    pivot: {x: 0.5, y: 0.5}
    oldSize: {x: 1.26, y: 1.53}
    newSize: {x: 1.26, y: 1.53}
    adaptiveTilingThreshold: 0.5
    drawMode: 0
    adaptiveTiling: 0
  m_AutoTiling: 0
  m_Points:
    m_Paths:
    - - {x: 0.08, y: -0.555}
      - {x: 0.17999999, y: -0.505}
      - {x: 0.24, y: -0.415}
      - {x: 0.31, y: -0.305}
      - {x: 0.39, y: -0.175}
      - {x: 0.44, y: -0.16499999}
      - {x: 0.45, y: -0.044999998}
      - {x: 0.52, y: 0.105}
      - {x: 0.55, y: 0.205}
      - {x: 0.55, y: 0.36499998}
      - {x: 0.51, y: 0.415}
      - {x: 0.44, y: 0.505}
      - {x: 0.45999998, y: 0.555}
      - {x: 0.44, y: 0.635}
      - {x: 0.35, y: 0.635}
      - {x: 0.19999999, y: 0.72499996}
      - {x: 0.08, y: 0.745}
      - {x: 0.04, y: 0.745}
      - {x: -0.089999996, y: 0.66499996}
      - {x: -0.19999999, y: 0.615}
      - {x: -0.26999998, y: 0.525}
      - {x: -0.32999998, y: 0.39499998}
      - {x: -0.41, y: 0.255}
      - {x: -0.48999998, y: -0.024999999}
      - {x: -0.58, y: -0.475}
      - {x: -0.59, y: -0.545}
      - {x: -0.59, y: -0.685}
      - {x: -0.57, y: -0.755}
      - {x: -0.52, y: -0.765}
      - {x: -0.24, y: -0.765}
      - {x: -0.19, y: -0.695}
      - {x: -0.07, y: -0.66499996}
      - {x: -0.049999997, y: -0.625}
    - - {x: 0.02, y: -0.625}
      - {x: 0.02, y: -0.675}
      - {x: 0.07, y: -0.675}
      - {x: 0.08, y: -0.66499996}
      - {x: 0.08, y: -0.635}
      - {x: 0.06, y: -0.615}
      - {x: 0.04, y: -0.615}
    - - {x: 0.5, y: -0.145}
      - {x: 0.53, y: -0.13499999}
      - {x: 0.53, y: -0.105}
      - {x: 0.5, y: -0.095}
      - {x: 0.48, y: -0.114999995}
--- !u!114 &114553747170304828
MonoBehaviour:
  m_ObjectHideFlags: 1
  m_PrefabParentObject: {fileID: 0}
  m_PrefabInternal: {fileID: 100100000}
  m_GameObject: {fileID: 1724332164914292}
  m_Enabled: 1
  m_EditorHideFlags: 0
  m_Script: {fileID: 11500000, guid: 13f4c16f6b64f4f4a8e94e7f0b2f7be8, type: 3}
  m_Name: 
  m_EditorClassIdentifier: 
  IsExploding: 0
  CurrentlyCollidingSameColoredBalls: 0
  AllSameColoredBallsImCollidingWith: []
--- !u!212 &212798444019314808
SpriteRenderer:
  m_ObjectHideFlags: 1
  m_PrefabParentObject: {fileID: 0}
  m_PrefabInternal: {fileID: 100100000}
  m_GameObject: {fileID: 1724332164914292}
  m_Enabled: 1
  m_CastShadows: 0
  m_ReceiveShadows: 0
  m_DynamicOccludee: 1
  m_MotionVectors: 1
  m_LightProbeUsage: 1
  m_ReflectionProbeUsage: 1
  m_Materials:
  - {fileID: 10754, guid: 0000000000000000f000000000000000, type: 0}
  m_StaticBatchInfo:
    firstSubMesh: 0
    subMeshCount: 0
  m_StaticBatchRoot: {fileID: 0}
  m_ProbeAnchor: {fileID: 0}
  m_LightProbeVolumeOverride: {fileID: 0}
  m_ScaleInLightmap: 1
  m_PreserveUVs: 0
  m_IgnoreNormalsForChartDetection: 0
  m_ImportantGI: 0
  m_StitchLightmapSeams: 0
  m_SelectedEditorRenderState: 0
  m_MinimumChartSize: 4
  m_AutoUVMaxDistance: 0.5
  m_AutoUVMaxAngle: 89
  m_LightmapParameters: {fileID: 0}
  m_SortingLayerID: 0
  m_SortingLayer: 0
  m_SortingOrder: 0
  m_Sprite: {fileID: 21300000, guid: 20197495e5aa5054ba960c244e0d81db, type: 3}
  m_Color: {r: 1, g: 1, b: 1, a: 1}
  m_FlipX: 0
  m_FlipY: 0
  m_DrawMode: 0
  m_Size: {x: 1.26, y: 1.53}
  m_AdaptiveModeThreshold: 0.5
  m_SpriteTileMode: 0
  m_WasSpriteAssigned: 1
  m_MaskInteraction: 0
